{
  "dynamicUrlToDependencies": {
    "dynamic/page1": [
      "client/twitch/twitch-stream-multi.component.html"
    ],
    "dynamic/page2": [
      "client/twitch/twitch-stream-multi.component.html"
    ]
  },
  "staticFileGlobs": [
    "client/twitch/**.css",
    "client/twitch/**.html",
    "client/**.html",
    "client/**.css",
    "client/twitch/**.js"
  ],
  "stripPrefix": "client/",
  "verbose": true,
  "runtimeCaching": [{
    "urlPattern": "/this\\.is\\.a\\.regex/",
    "handler": "networkFirst"
  }]
}